--> Test your knowledge about Java default        
    libraries.                                    
                                                  
                                                  
                                                  
                                                  
                                                  
                                                  
                                                  
                                                  
                                                  
                                                  
                                            page 4