decisions. And, of course, smaller changes need   
not be explained.                                 
                                                  
                                                  
                                                  
                                                  
                                                  
                                                  
                                                  
                                                  
                                                  
                                                  
                                            page 9